…
```r
install.packages(c("tidyverse", "hrbrthemes", "estimatr", "lfe", "huxtable", "margins"))
```

Once that's done, let's start by loading the `tidyverse`, which is really a bunch of different packages bundled together. We're going to be using the starwars data frame (just for you Ben!), which also comes bundled together with the `tidyverse`. 


```r
library(tidyverse)

starwars
```

```
## # A tibble: 87 x 13
##    name  height  mass hair_color skin_color eye_color birth_year gender
##    <chr>  <int> <dbl> <chr>      <chr>      <chr>          <dbl> <chr> 
##  1 Luke…    172    77 blond      fair       blue            19   male  
##  2 C-3PO    167    75 <NA>       gold       yellow         112   <NA>  
##  3 R2-D2     96    32 <NA>       white, bl… red             33   <NA>  
##  4 Dart…    202   136 none       white      yellow          41.9 male  
##  5 Leia…    150    49 brown      light      brown           19   female
##  6 Owen…    178   120 brown, gr… light      blue            52   male  
##  7 Beru…    165    75 brown      light      blue            47   female
##  8 R5-D4     97    32 <NA>       white, red red             NA   <NA>  
##  9 Bigg…    183    84 black      light      brown           24   male  
## 10 Obi-…    182    77 auburn, w… fair       blue-gray       57   male  
## # ... with 77 more rows, and 5 more variables: homeworld <chr>,
## #   species <chr>, films <list>, vehicles <list>, starships <list>
```
…
You might already have noticed it from the above code chunk, but R (through the `tidyverse`) makes it really easy to wrangle data. One particularly nice feature is the pipe operator: `%>%`. This easily lets us combine objects and functions together in a way that is much easier to read than standard code. For example:


```r
starwars %>%
  arrange(desc(mass)) %>%
  select(name, mass, height)
```

```
## # A tibble: 87 x 3
##    name                   mass height
##    <chr>                 <dbl>  <int>
##  1 Jabba Desilijic Tiure  1358    175
##  2 Grievous                159    216
##  3 IG-88                   140    200
##  4 Darth Vader             136    202
##  5 Tarfful                 136    234
##  6 Owen Lars               120    178
##  7 Bossk                   113    190
##  8 Chewbacca               112    228
##  9 Jek Tono Porkins        110    180
## 10 Dexter Jettster         102    198
## # ... with 77 more rows
```
…
